{
  "totalItems": 100,
  "startIndex": 0,
  "itemsPerPage": 6,
  "currentItemCount": 6,
  "pageStartIndex": 0,
  "totalPages": 3,
  "suggestions": [
    "sulfuric acid",
    "sulfuric acid solution",
    "sulfuric acid concentrate",
    "sulfate"
  ],
  "pages": [
    {
      "page_id": "492719079616",
      "title": "Melting and Recrystallizing “Yellow Snow” (Sulfur Experiment)",
      "link": "/blogs/articles/melting-and-recrystallizing-yellow-snow-sulfur-experiment",
      "image_link": "https://cdn.shopify.com/s/files/1/0250/0623/articles/p1330415_compact.jpg?v=1608664926",
      "description": "(Note: if you are not an adult, please be sure to perform this experiment with adult supervision. Conduct experiment in a well-ventilated area.) What you’ll need:  Sulfur lump Metal spoon Stovetop or lighter Cup of water  Using the back of a spoon, crush a small amount of the sulfur into a fine ..."
    },
    {
      "page_id": "563390546112",
      "title": "It’s National Chemistry Week! Learn about These 4 Amazing Chemical Reactions in Your Everyday Life",
      "link": "/blogs/articles/it-s-national-chemistry-week-learn-about-these-4-amazing-chemical-reactions-in-your-everyday-life",
      "image_link": "https://cdn.shopify.com/s/files/1/0250/0623/articles/d1yudxuboplvwjhx68jb_compact.jpg?v=1666033165",
      "description": "Grab your beakers, Bunsen burners, and safety goggles—National Chemistry Week is this week! Starting October 16 through October 22, chemists around the United States will unite in the recognition of the role chemistry plays in everyday life. To encourage this promotion, hBARSCI decided to share ..."
    },
    {
      "page_id": "562985500864",
      "title": "June 8 Was World Oceans Day! Here’s Why That Should Matter to You",
      "link": "/blogs/articles/june-8-was-world-oceans-day-here-s-why-that-should-matter-to-you",
      "image_link": "https://cdn.shopify.com/s/files/1/0250/0623/articles/sldoc28ykh9wzr80lcyd_compact.jpg?v=1654880410",
      "description": "For most of history, man has had to fight nature to survive; in this century he is beginning to realize that, in order to survive, he must protect it. ―Jacques-Yves Cousteau            Each year on June 8 (this past Wednesday), the UN sponsors World Oceans Day. With a different theme each year, ..."
    }
  ],
  "items": [
    {
      "product_id": "8250040136",
      "original_product_id": "8250040136",
      "title": "3 Piece Santa's Scientific \"Yellow Snow\" with Experiment Set - Premium Cotton Bag and 2 Small Sulfur Lumps",
      "description": "2 small chunks of sulfur \"yellow snow\" approximately 1\" in size Premium cotton muslin bag for storage and wrapping Card contains link to an experiment that lets you grow and regrow your own sulfur ...",
      "link": "/products/xmassulf",
      "price": "14.9900",
      "list_price": "0.0000",
      "quantity": "1",
      "product_code": "XMASSULF",
      "image_link": "https://cdn.shopify.com/s/files/1/0250/0623/products/ewoh5aznvpzhn3ux9bx8_large.jpg?v=1596747994",
      "vendor": "hBARSCI",
      "discount": "0",
      "add_to_cart_id": "27428608904",
      "total_reviews": "0",
      "reviews_average_score": "0",
      "shopify_variants": [
        {
          "variant_id": "27428608904",
          "sku": "XMASSULF",
          "barcode": "",
          "price": "14.9900",
          "list_price": "0.0000",
          "taxable": "1",
          "options": {
            "Title": "Default Title"
          },
          "available": "1",
          "search_variant_metafields_data": [],
          "filter_variant_metafields_data": [],
          "image_link": "https://cdn.shopify.com/s/files/1/0250/0623/products/ewoh5aznvpzhn3ux9bx8_large.jpg?v=1596747994",
          "image_alt": "",
          "quantity_at_location_294289436": "202",
          "quantity_total": "202",
          "link": "/products/xmassulf?variant=27428608904"
        }
      ],
      "shopify_images": [
        "https://cdn.shopify.com/s/files/1/0250/0623/products/ewoh5aznvpzhn3ux9bx8_large.jpg?v=1596747994",
        "https://cdn.shopify.com/s/files/1/0250/0623/files/Sulfur2_large.png?v=1701275637"
      ],
      "shopify_images_alt": [
        "",
        ""
      ],
      "tags": "Gifts[:ATTR:]Gifts_Kids[:ATTR:]Gifts_Science Gifts[:ATTR:]Item Type_Home Furnishing[:ATTR:]Pack Size_3[:ATTR:]Theme_Christmas",
      "collections": "All Items[:ATTR:]All Products[:ATTR:]Best selling products[:ATTR:]In Stock and not Build To Order[:ATTR:]Kids[:ATTR:]Science Gifts[:ATTR:]hBARSCI Products - All",
      "quantity_total": "202"
    },
    {
      "product_id": "3550072602708",
      "original_product_id": "3550072602708",
      "title": "Sulfuric Acid Solution, 500mL - 1.0M - The Curated Chemical Collection",
      "description": "500mL bottle of sulfuric acid Chemical for general purpose lab and educational use Used as a strong acid Perfect for use in any chemistry lab or classroom Includes directions for safe storage and ...",
      "link": "/products/sulfuric-acid-solution-1-0m-500ml",
      "price": "29.0000",
      "list_price": "0.0000",
      "quantity": "1",
      "product_code": "IS28256",
      "image_link": "https://cdn.shopify.com/s/files/1/0250/0623/files/ork3i1qofvwdug8xc2vb_large.jpg?v=1702501876",
      "vendor": "Innovating Science",
      "discount": "0",
      "add_to_cart_id": "28114098978900",
      "total_reviews": "0",
      "reviews_average_score": "0",
      "shopify_variants": [
        {
          "variant_id": "28114098978900",
          "sku": "IS28256",
          "barcode": "",
          "price": "29.0000",
          "list_price": "0.0000",
          "taxable": "1",
          "options": {
            "Title": "Default Title"
          },
          "available": "1",
          "search_variant_metafields_data": [],
          "filter_variant_metafields_data": [],
          "image_link": "",
          "image_alt": "",
          "quantity_at_location_294289436": "60",
          "quantity_total": "60",
          "link": "/products/sulfuric-acid-solution-1-0m-500ml?variant=28114098978900"
        }
      ],
      "shopify_images": [
        "https://cdn.shopify.com/s/files/1/0250/0623/files/ork3i1qofvwdug8xc2vb_large.jpg?v=1702501876",
        "https://cdn.shopify.com/s/files/1/0250/0623/files/saxwmd76qzathq0lgw34_large.jpg?v=1702501876",
        "https://cdn.shopify.com/s/files/1/0250/0623/files/djqzt28lbpteiruwp29k_facfe297-29f7-4968-b14f-9f2b47c5747f_large.png?v=1702501878",
        "https://cdn.shopify.com/s/files/1/0250/0623/files/bcawpzcpafaneehs10w3_f28ac496-dd01-41ad-9c60-827844afe0a7_large.png?v=1702501880",
        "https://cdn.shopify.com/s/files/1/0250/0623/files/eahxs6afxsrxylgxdyei_24742d32-af36-4032-b037-e5325b0b8484_large.png?v=1702501881",
        "https://cdn.shopify.com/s/files/1/0250/0623/files/amyhdiqk1gidnhb9olrl_2fd10545-91c4-4f02-a112-c7af3b907432_large.png?v=1702501883"
      ],
      "shopify_images_alt": [
        "",
        "",
        "",
        "",
        "",
        ""
      ],
      "tags": "Capacity_500mL[:ATTR:]Chemical_Sulfuric Acid[:ATTR:]Chemicals_Acids & Bases[:ATTR:]Chemistry[:ATTR:]Chemistry_Chemicals[:ATTR:]Hazardous-Shipping[:ATTR:]Moles_1M[:ATTR:]Pack Size_Single[:ATTR:]prop65[:ATTR:]State_Liquid[:ATTR:]StockedLY9121",
      "collections": "Acids & Bases[:ATTR:]All Items[:ATTR:]All Products[:ATTR:]Best selling products[:ATTR:]CHEMICALS[:ATTR:]CHEMISTRY[:ATTR:]In Stock and not Build To Order[:ATTR:]hBARSCI Products - All",
      "quantity_total": "60"
    },
    {
      "product_id": "6999559405760",
      "original_product_id": "6999559405760",
      "title": "Sulfuric Acid Concentrate 98%, 500mL - ACS Grade - The Curated Chemical Collection",
      "description": "ACS GRADE || Meets highest purity standards set by the American Chemical Society; for procedures with stringent quality specifications APPLICATIONS || Used as a strong corrosive and to dehydrate ...",
      "link": "/products/is28250",
      "price": "38.9900",
      "list_price": "0.0000",
      "quantity": "1",
      "product_code": "IS28250",
      "image_link": "https://cdn.shopify.com/s/files/1/0250/0623/products/jgxsizfljicaeirgacfu_large.jpg?v=1702914369",
      "vendor": "Innovating Science",
      "discount": "0",
      "add_to_cart_id": "41217130528960",
      "total_reviews": "0",
      "reviews_average_score": "0",
      "shopify_variants": [
        {
          "variant_id": "41217130528960",
          "sku": "IS28250",
          "barcode": "",
          "price": "38.9900",
          "list_price": "0.0000",
          "taxable": "1",
          "options": {
            "Title": "Default Title"
          },
          "available": "1",
          "search_variant_metafields_data": [],
          "filter_variant_metafields_data": [],
          "image_link": "",
          "image_alt": "",
          "quantity_at_location_294289436": "31",
          "quantity_total": "31",
          "link": "/products/is28250?variant=41217130528960"
        }
      ],
      "shopify_images": [
        "https://cdn.shopify.com/s/files/1/0250/0623/products/jgxsizfljicaeirgacfu_large.jpg?v=1702914369",
        "https://cdn.shopify.com/s/files/1/0250/0623/files/aweyq1igakutgr7u1uue_large.jpg?v=1702914371",
        "https://cdn.shopify.com/s/files/1/0250/0623/files/djqzt28lbpteiruwp29k_3e76afb3-2b96-485c-a16c-7b8d20562fec_large.png?v=1702914373",
        "https://cdn.shopify.com/s/files/1/0250/0623/files/eahxs6afxsrxylgxdyei_9adf82dc-c7db-4e4b-8165-99fcc3da4204_large.png?v=1702914375",
        "https://cdn.shopify.com/s/files/1/0250/0623/files/amyhdiqk1gidnhb9olrl_73dfcdef-ebad-4701-8be3-b4a096b2be0b_large.png?v=1702914377"
      ],
      "shopify_images_alt": [
        "",
        "",
        "",
        "",
        ""
      ],
      "tags": "Capacity_500mL[:ATTR:]Chemical_Sulfuric Acid[:ATTR:]Chemicals_Acids & Bases[:ATTR:]Chemistry[:ATTR:]Chemistry_Chemicals[:ATTR:]Grade_ACS-Grade[:ATTR:]Hazardous-Shipping[:ATTR:]State_Liquid[:ATTR:]StockedLY9121",
      "collections": "Acids & Bases[:ATTR:]All Items[:ATTR:]All Products[:ATTR:]Best selling products[:ATTR:]CHEMICALS[:ATTR:]CHEMISTRY[:ATTR:]In Stock and not Build To Order[:ATTR:]hBARSCI Products - All",
      "quantity_total": "31"
    },
    {
      "product_id": "541985112092",
      "original_product_id": "541985112092",
      "title": "Anhydrous Copper (II) Sulfate, 500g - Reagent Grade -",
      "description": "ANHYDROUS COPPER (II) SULFATE || 500g of Anhydrous Copper (II) Sulfate is often used component in Benedict's and biuret reagents REAGENT GRADE || This chemical is reagent grade, making it suitable ...",
      "link": "/products/is12177",
      "price": "97.9900",
      "list_price": "0.0000",
      "quantity": "1",
      "product_code": "IS12177",
      "image_link": "https://cdn.shopify.com/s/files/1/0250/0623/files/fpr89l4pv4us8npjuo5w_large.jpg?v=1704223871",
      "vendor": "Innovating Science",
      "discount": "0",
      "add_to_cart_id": "6843403436060",
      "total_reviews": "0",
      "reviews_average_score": "0",
      "shopify_variants": [
        {
          "variant_id": "6843403436060",
          "sku": "IS12177",
          "barcode": "724832001287",
          "price": "97.9900",
          "list_price": "0.0000",
          "taxable": "1",
          "options": {
            "Title": "Default Title"
          },
          "available": "1",
          "search_variant_metafields_data": [],
          "filter_variant_metafields_data": [],
          "image_link": "",
          "image_alt": "",
          "quantity_at_location_294289436": "4",
          "quantity_total": "4",
          "link": "/products/is12177?variant=6843403436060"
        }
      ],
      "shopify_images": [
        "https://cdn.shopify.com/s/files/1/0250/0623/files/fpr89l4pv4us8npjuo5w_large.jpg?v=1704223871",
        "https://cdn.shopify.com/s/files/1/0250/0623/files/oniclwwcphimgmpvtm57_large.jpg?v=1704223871",
        "https://cdn.shopify.com/s/files/1/0250/0623/files/bcawpzcpafaneehs10w3_520e6424-d6c3-4e5c-8352-86ca765f1ebf_large.png?v=1704223873",
        "https://cdn.shopify.com/s/files/1/0250/0623/files/eahxs6afxsrxylgxdyei_9d7adf52-fa08-481b-a3b7-bca612bf75a5_large.png?v=1704223874",
        "https://cdn.shopify.com/s/files/1/0250/0623/files/amyhdiqk1gidnhb9olrl_e1c214e3-ec60-4032-8587-94eb306caee7_large.png?v=1704223874",
        "https://cdn.shopify.com/s/files/1/0250/0623/files/djqzt28lbpteiruwp29k_58888e82-4cc6-4914-8f18-ec25370f8c3a_large.png?v=1704223873"
      ],
      "shopify_images_alt": [
        "",
        "",
        "",
        "",
        "",
        ""
      ],
      "tags": "Capacity_500g[:ATTR:]Chemical_Copper (II) Sulfate[:ATTR:]Chemicals_Salts/Inorganic Compounds[:ATTR:]Chemistry[:ATTR:]Chemistry_Chemicals[:ATTR:]Grade_Reagent-Grade[:ATTR:]Hazardous-Shipping[:ATTR:]Pack Size_Single[:ATTR:]StockedLY9121",
      "collections": "All Items[:ATTR:]All Products[:ATTR:]Best selling products[:ATTR:]CHEMICALS[:ATTR:]CHEMISTRY[:ATTR:]In Stock and not Build To Order[:ATTR:]Inorganic Compounds & Salts[:ATTR:]hBARSCI Products - All",
      "quantity_total": "4"
    },
    {
      "product_id": "4761686048852",
      "original_product_id": "4761686048852",
      "title": "Raw Sulfur, Mineral Specimen - Approx. 1\"",
      "description": "SULFUR | Sulfur is a popular mineral that forms as a soft precipitate near volcanic vents and springs. This bright yellow mineral has a distinct smell and unusual streak color GREAT FOR GEOLOGY ...",
      "link": "/products/hesng0026",
      "price": "10.4900",
      "list_price": "0.0000",
      "quantity": "1",
      "product_code": "HESNG0026",
      "image_link": "https://cdn.shopify.com/s/files/1/0250/0623/files/xkqretoruh8mjdunefm5_large.jpg?v=1701456708",
      "vendor": "Eisco",
      "discount": "0",
      "add_to_cart_id": "32835649077332",
      "total_reviews": "0",
      "reviews_average_score": "0",
      "shopify_variants": [
        {
          "variant_id": "32835649077332",
          "sku": "HESNG0026",
          "barcode": "",
          "price": "10.4900",
          "list_price": "0.0000",
          "taxable": "1",
          "options": {
            "Title": "Default Title"
          },
          "available": "1",
          "search_variant_metafields_data": [],
          "filter_variant_metafields_data": [],
          "image_link": "",
          "image_alt": "",
          "quantity_at_location_294289436": "405",
          "quantity_total": "405",
          "link": "/products/hesng0026?variant=32835649077332"
        }
      ],
      "shopify_images": [
        "https://cdn.shopify.com/s/files/1/0250/0623/files/xkqretoruh8mjdunefm5_large.jpg?v=1701456708",
        "https://cdn.shopify.com/s/files/1/0250/0623/files/quqnzaochlkzuyraap6o_large.jpg?v=1701456711",
        "https://cdn.shopify.com/s/files/1/0250/0623/files/zfbadqajtwbai6wuuapd_large.jpg?v=1701456715",
        "https://cdn.shopify.com/s/files/1/0250/0623/files/c3y4hkyq1jwjyvecm2wj_large.png?v=1701456717",
        "https://cdn.shopify.com/s/files/1/0250/0623/files/omc1fvrkngfe7wus98m2_610ad54f-7d2e-4d46-9142-8b56d8e4122f_large.png?v=1701456719"
      ],
      "shopify_images_alt": [
        "",
        "",
        "",
        "",
        ""
      ],
      "tags": "Geology[:ATTR:]Geology Specimens_Rocks[:ATTR:]Geology_Geology Specimens[:ATTR:]hesng[:ATTR:]Science at Home[:ATTR:]Science at Home_Earth Science[:ATTR:]Science at Home_Elementary Science[:ATTR:]StockedLY9121",
      "collections": "All Items[:ATTR:]All Products[:ATTR:]Best selling products[:ATTR:]Earth Science[:ATTR:]Elementary Science[:ATTR:]GEOLOGY[:ATTR:]Geology Specimens[:ATTR:]In Stock and not Build To Order[:ATTR:]Individual Rock & Mineral Samples[:ATTR:]Rocks[:ATTR:]Science at Home - Distance Learning[:ATTR:]hBARSCI Products - All",
      "quantity_total": "405"
    },
    {
      "product_id": "4761686114388",
      "original_product_id": "4761686114388",
      "title": "6PK Raw Sulfur, Mineral Specimen - Approx. 1\"",
      "description": "SULFUR | Sulfur is a popular mineral that forms as a soft precipitate near volcanic vents and springs. This bright yellow mineral has a distinct smell and unusual streak color GREAT FOR GEOLOGY ...",
      "link": "/products/hesng0026pk6",
      "price": "17.6900",
      "list_price": "0.0000",
      "quantity": "1",
      "product_code": "HESNG0026PK6",
      "image_link": "https://cdn.shopify.com/s/files/1/0250/0623/files/smizscwebyrx5xekoouc_large.jpg?v=1701456724",
      "vendor": "Eisco",
      "discount": "0",
      "add_to_cart_id": "32835649241172",
      "total_reviews": "0",
      "reviews_average_score": "0",
      "shopify_variants": [
        {
          "variant_id": "32835649241172",
          "sku": "HESNG0026PK6",
          "barcode": "",
          "price": "17.6900",
          "list_price": "0.0000",
          "taxable": "1",
          "options": {
            "Title": "Default Title"
          },
          "available": "1",
          "search_variant_metafields_data": [],
          "filter_variant_metafields_data": [],
          "image_link": "",
          "image_alt": "",
          "quantity_at_location_294289436": "67",
          "quantity_total": "67",
          "link": "/products/hesng0026pk6?variant=32835649241172"
        }
      ],
      "shopify_images": [
        "https://cdn.shopify.com/s/files/1/0250/0623/files/smizscwebyrx5xekoouc_large.jpg?v=1701456724",
        "https://cdn.shopify.com/s/files/1/0250/0623/files/xkqretoruh8mjdunefm5_36b042d7-7af1-4bfa-85b4-64c2e0d572a9_large.jpg?v=1701456726",
        "https://cdn.shopify.com/s/files/1/0250/0623/files/quqnzaochlkzuyraap6o_7cfe61fc-7ac8-43c9-b698-da684c32cf64_large.jpg?v=1701456728",
        "https://cdn.shopify.com/s/files/1/0250/0623/files/zfbadqajtwbai6wuuapd_3061be1a-6f29-4d9c-8c95-784a9506622d_large.jpg?v=1701456730",
        "https://cdn.shopify.com/s/files/1/0250/0623/files/c3y4hkyq1jwjyvecm2wj_d183e80a-890a-4200-8dd3-d97286708c96_large.png?v=1701456732",
        "https://cdn.shopify.com/s/files/1/0250/0623/files/omc1fvrkngfe7wus98m2_22eb1ee4-754a-432b-b98f-3f77b78627d8_large.png?v=1701456734"
      ],
      "shopify_images_alt": [
        "",
        "",
        "",
        "",
        "",
        ""
      ],
      "tags": "Geology[:ATTR:]Geology Specimens_Rocks[:ATTR:]Geology_Geology Specimens[:ATTR:]hesng[:ATTR:]Science at Home[:ATTR:]Science at Home_Earth Science[:ATTR:]Science at Home_Elementary Science[:ATTR:]StockedLY9121",
      "collections": "All Items[:ATTR:]All Products[:ATTR:]Best selling products[:ATTR:]Earth Science[:ATTR:]Elementary Science[:ATTR:]GEOLOGY[:ATTR:]Geology Specimens[:ATTR:]In Stock and not Build To Order[:ATTR:]Rocks[:ATTR:]Science at Home - Distance Learning[:ATTR:]hBARSCI Products - All",
      "quantity_total": "67"
    }
  ]
}
